%YAML 1.1
%TAG !u! tag:unity3d.com,2011:
--- !u!221 &22100000
AnimatorOverrideController:
  m_ObjectHideFlags: 0
  m_CorrespondingSourceObject: {fileID: 0}
  m_PrefabInstance: {fileID: 0}
  m_PrefabAsset: {fileID: 0}
  m_Name: PlayerMovement
  m_Controller: {fileID: 9100000, guid: ec35692442a613e4286869dad5d18f61, type: 2}
  m_Clips:
  - m_OriginalClip: {fileID: 7400000, guid: 8cceed3b3f02f054cbc62e0e37911fab, type: 2}
    m_OverrideClip: {fileID: 7400000, guid: de744730bf5bea34db674f829cbed24a, type: 2}
  - m_OriginalClip: {fileID: 7400000, guid: 452c9fb44aea37347a933ddd8f9a9584, type: 2}
    m_OverrideClip: {fileID: 7400000, guid: de744730bf5bea34db674f829cbed24a, type: 2}
  - m_OriginalClip: {fileID: 7400000, guid: dda6e7c540886424f9201d4cd6c1ee02, type: 2}
    m_OverrideClip: {fileID: 7400000, guid: 5841f87bc241c794a9af63fa46e1d09a, type: 2}
  - m_OriginalClip: {fileID: 7400000, guid: 2dc97c9910490aa48bca98e0d4d3e872, type: 2}
    m_OverrideClip: {fileID: 7400000, guid: 5841f87bc241c794a9af63fa46e1d09a, type: 2}
  - m_OriginalClip: {fileID: 7400000, guid: 4c783aa8702746f4fabd8aa9cd429bad, type: 2}
    m_OverrideClip: {fileID: 7400000, guid: c6120d3d8a71e2e4d850c38ba046d1f1, type: 2}
